{
  "profiles": {
    "TvMazeScraper.Client": {
      "commandName": "Project",
      "environmentVariables": {
        "CONNECTION_STRING": "Server=localhost\\SQLEXPRESS; Database = TvMazeScraper; Trusted_Connection = True;"
      }
    }
  }
}